eclat/target/tb.vcd
$date
  Mon Jul  8 23:31:55 2024
$end
$version
  GHDL v0
$end
$timescale
  1 fs
$end
$scope module standard $end
$upscope $end
$scope module std_logic_1164 $end
$upscope $end
$scope module numeric_std $end
$upscope $end
$scope module runtime $end
$upscope $end
$scope module textio $end
$upscope $end
$scope module tb_main $end
$var reg 1 ! tb_run $end
$var reg 1 " tb_argument[0:0] $end
$var reg 1 # tb_result[0:0] $end
$var reg 1 $ tb_rdy[0:0] $end
$var reg 1 % tb_clk $end
$var reg 1 & rst $end
$scope module u1 $end
$var reg 1 ' clk $end
$var reg 1 ( reset $end
$var reg 1 ) run $end
$var reg 1 * rdy[0:0] $end
$var reg 1 + argument[0:0] $end
$var reg 1 , result[0:0] $end
$comment state is not handled $end
$comment \state%next\ is not handled $end
$comment state_var32 is not handled $end
$comment \state_var32%next\ is not handled $end
$var reg 1 - cpt_argument_0[0:0] $end
$var reg 8 . cpt_result_0[0:7] $end
$var reg 1 / cpt_argument_1[0:0] $end
$var reg 8 0 cpt_result_1[0:7] $end
$var reg 17 1 \$68%now\[0:16] $end
$var reg 17 2 \$68%next\[0:16] $end
$var reg 1 3 \$v25%now\[0:0] $end
$var reg 1 4 \$v25%next\[0:0] $end
$var reg 16 5 \result26%now\[0:15] $end
$var reg 16 6 \result26%next\[0:15] $end
$var reg 1 7 \$v29%now\[0:0] $end
$var reg 1 8 \$v29%next\[0:0] $end
$var reg 1 9 \rdy27%now\[0:0] $end
$var reg 1 : \rdy27%next\[0:0] $end
$var reg 1 ; \$v31%now\[0:0] $end
$var reg 1 < \$v31%next\[0:0] $end
$var reg 1 = \result22%now\[0:0] $end
$var reg 1 > \result22%next\[0:0] $end
$var reg 8 ? \$76_v1%now\[0:7] $end
$var reg 8 @ \$76_v1%next\[0:7] $end
$var reg 1 A \rdy23%now\[0:0] $end
$var reg 1 B \rdy23%next\[0:0] $end
$var reg 8 C \$77_v2%now\[0:7] $end
$var reg 8 D \$77_v2%next\[0:7] $end
$scope module cpt_cc_0 $end
$var reg 1 E clk $end
$var reg 1 F reset $end
$var reg 1 G start $end
$var reg 1 H argument[0:0] $end
$var reg 8 I result[0:7] $end
$var reg 8 J c[0:7] $end
$upscope $end
$scope module cpt_cc_1 $end
$var reg 1 K clk $end
$var reg 1 L reset $end
$var reg 1 M start $end
$var reg 1 N argument[0:0] $end
$var reg 8 O result[0:7] $end
$var reg 8 P c[0:7] $end
$upscope $end
$upscope $end
$upscope $end
$enddefinitions $end
#0
0!
bU "
bU #
bU $
1%
1&
1'
1(
0)
bU *
bU +
bU ,
b0 -
b00000000 .
b0 /
b00000000 0
b00000000000000000 1
b00000000000000000 2
b0 3
b0 4
b0000000000000000 5
b0000000000000000 6
b0 7
b0 8
b0 9
b0 :
b0 ;
b0 <
b0 =
b0 >
b00000000 ?
b00000000 @
b0 A
b0 B
b00000000 C
b00000000 D
1E
1F
1G
b0 H
b00000000 I
b00000000 J
1K
1L
1M
b0 N
b00000000 O
b00000000 P
#2000000
0&
0(
0F
0L
#5000000
0%
0'
0E
0K
#10000000
1!
b1 #
b1 $
1%
1'
1)
b1 *
b1 ,
b1 -
b1 /
b00000000000000001 2
b1 4
b1 8
b1 :
b1 >
b1 B
1E
b1 H
b00000001 J
1K
b1 N
b00000001 P
#15000000
0%
0'
b00000001 .
b00000001 0
0E
b00000001 I
0K
b00000001 O
#20000000
1%
1'
b00000000000000001 1
b00000001000000001 2
b1 3
b0000000100000000 6
b1 7
b0 8
b1 9
b1 =
b00000001 @
b1 A
1E
b00000010 J
1K
b00000010 P
#25000000
0%
0'
b00000010 .
b00000010 0
0E
b00000010 I
0K
b00000010 O
#30000000
1%
1'
b00000001000000001 1
b00000010000000101 2
b0000000100000000 5
b0000001000000010 6
b0 7
b1 8
b00000001 ?
b00000010 @
b00000010 D
1E
b00000011 J
1K
b00000011 P
#35000000
0%
0'
b00000011 .
b00000011 0
0E
b00000011 I
0K
b00000011 O
#40000000
1%
1'
b00000010000000101 1
b00000011000000001 2
b0000001000000010 5
b0000001100000000 6
b1 7
b0 8
b00000010 ?
b00000011 @
b00000010 C
b00000000 D
1E
b00000100 J
1K
b00000100 P
#45000000
0%
0'
b00000100 .
b00000100 0
0E
b00000100 I
0K
b00000100 O
#50000000
1%
1'
b00000011000000001 1
b00000100000001001 2
b0000001100000000 5
b0000010000000100 6
b0 7
b1 8
b00000011 ?
b00000100 @
b00000000 C
b00000100 D
1E
b00000101 J
1K
b00000101 P
#55000000
0%
0'
b00000101 .
b00000101 0
0E
b00000101 I
0K
b00000101 O
#60000000
1%
1'
b00000100000001001 1
b00000101000000001 2
b0000010000000100 5
b0000010100000000 6
b1 7
b0 8
b00000100 ?
b00000101 @
b00000100 C
b00000000 D
1E
b00000110 J
1K
b00000110 P
#65000000
0%
0'
b00000110 .
b00000110 0
0E
b00000110 I
0K
b00000110 O
#70000000
1%
1'
b00000101000000001 1
b00000110000001101 2
b0000010100000000 5
b0000011000000110 6
b0 7
b1 8
b00000101 ?
b00000110 @
b00000000 C
b00000110 D
1E
b00000111 J
1K
b00000111 P
#75000000
0%
0'
b00000111 .
b00000111 0
0E
b00000111 I
0K
b00000111 O
#80000000
1%
1'
b00000110000001101 1
b00000111000000001 2
b0000011000000110 5
b0000011100000000 6
b1 7
b0 8
b00000110 ?
b00000111 @
b00000110 C
b00000000 D
1E
b00001000 J
1K
b00001000 P
#85000000
0%
0'
b00001000 .
b00001000 0
0E
b00001000 I
0K
b00001000 O
#90000000
1%
1'
b00000111000000001 1
b00001000000010001 2
b0000011100000000 5
b0000100000001000 6
b0 7
b1 8
b00000111 ?
b00001000 @
b00000000 C
b00001000 D
1E
b00001001 J
1K
b00001001 P
#95000000
0%
0'
b00001001 .
b00001001 0
0E
b00001001 I
0K
b00001001 O
#100000000
1%
1'
b00001000000010001 1
b00001001000000001 2
b0000100000001000 5
b0000100100000000 6
b1 7
b0 8
b00001000 ?
b00001001 @
b00001000 C
b00000000 D
1E
b00001010 J
1K
b00001010 P
#105000000
0%
0'
b00001010 .
b00001010 0
0E
b00001010 I
0K
b00001010 O
#110000000
1%
1'
b00001001000000001 1
b00001010000010101 2
b0000100100000000 5
b0000101000001010 6
b0 7
b1 8
b00001001 ?
b00001010 @
b00000000 C
b00001010 D
1E
b00001011 J
1K
b00001011 P
#115000000
0%
0'
b00001011 .
b00001011 0
0E
b00001011 I
0K
b00001011 O
#120000000
1%
1'
b00001010000010101 1
b00001011000000001 2
b0000101000001010 5
b0000101100000000 6
b1 7
b0 8
b00001010 ?
b00001011 @
b00001010 C
b00000000 D
1E
b00001100 J
1K
b00001100 P
#125000000
0%
0'
b00001100 .
b00001100 0
0E
b00001100 I
0K
b00001100 O
#130000000
1%
1'
b00001011000000001 1
b00001100000011001 2
b0000101100000000 5
b0000110000001100 6
b0 7
b1 8
b00001011 ?
b00001100 @
b00000000 C
b00001100 D
1E
b00001101 J
1K
b00001101 P
#135000000
0%
0'
b00001101 .
b00001101 0
0E
b00001101 I
0K
b00001101 O
#140000000
1%
1'
b00001100000011001 1
b00001101000000001 2
b0000110000001100 5
b0000110100000000 6
b1 7
b0 8
b00001100 ?
b00001101 @
b00001100 C
b00000000 D
1E
b00001110 J
1K
b00001110 P
#145000000
0%
0'
b00001110 .
b00001110 0
0E
b00001110 I
0K
b00001110 O
#150000000
1%
1'
b00001101000000001 1
b00001110000011101 2
b0000110100000000 5
b0000111000001110 6
b0 7
b1 8
b00001101 ?
b00001110 @
b00000000 C
b00001110 D
1E
b00001111 J
1K
b00001111 P
#155000000
0%
0'
b00001111 .
b00001111 0
0E
b00001111 I
0K
b00001111 O
#160000000
1%
1'
b00001110000011101 1
b00001111000000001 2
b0000111000001110 5
b0000111100000000 6
b1 7
b0 8
b00001110 ?
b00001111 @
b00001110 C
b00000000 D
1E
b00010000 J
1K
b00010000 P
#165000000
0%
0'
b00010000 .
b00010000 0
0E
b00010000 I
0K
b00010000 O
#170000000
1%
1'
b00001111000000001 1
b00010000000100001 2
b0000111100000000 5
b0001000000010000 6
b0 7
b1 8
b00001111 ?
b00010000 @
b00000000 C
b00010000 D
1E
b00010001 J
1K
b00010001 P
#175000000
0%
0'
b00010001 .
b00010001 0
0E
b00010001 I
0K
b00010001 O
#180000000
1%
1'
b00010000000100001 1
b00010001000000001 2
b0001000000010000 5
b0001000100000000 6
b1 7
b0 8
b00010000 ?
b00010001 @
b00010000 C
b00000000 D
1E
b00010010 J
1K
b00010010 P
#185000000
0%
0'
b00010010 .
b00010010 0
0E
b00010010 I
0K
b00010010 O
#190000000
1%
1'
b00010001000000001 1
b00010010000100101 2
b0001000100000000 5
b0001001000010010 6
b0 7
b1 8
b00010001 ?
b00010010 @
b00000000 C
b00010010 D
1E
b00010011 J
1K
b00010011 P
#195000000
0%
0'
b00010011 .
b00010011 0
0E
b00010011 I
0K
b00010011 O
#200000000
1%
1'
b00010010000100101 1
b00010011000000001 2
b0001001000010010 5
b0001001100000000 6
b1 7
b0 8
b00010010 ?
b00010011 @
b00010010 C
b00000000 D
1E
b00010100 J
1K
b00010100 P
#205000000
0%
0'
b00010100 .
b00010100 0
0E
b00010100 I
0K
b00010100 O
#210000000
1%
1'
b00010011000000001 1
b00010100000101001 2
b0001001100000000 5
b0001010000010100 6
b0 7
b1 8
b00010011 ?
b00010100 @
b00000000 C
b00010100 D
1E
b00010101 J
1K
b00010101 P
#215000000
0%
0'
b00010101 .
b00010101 0
0E
b00010101 I
0K
b00010101 O
#220000000
1%
1'
b00010100000101001 1
b00010101000000001 2
b0001010000010100 5
b0001010100000000 6
b1 7
b0 8
b00010100 ?
b00010101 @
b00010100 C
b00000000 D
1E
b00010110 J
1K
b00010110 P
#225000000
0%
0'
b00010110 .
b00010110 0
0E
b00010110 I
0K
b00010110 O
#230000000
1%
1'
b00010101000000001 1
b00010110000101101 2
b0001010100000000 5
b0001011000010110 6
b0 7
b1 8
b00010101 ?
b00010110 @
b00000000 C
b00010110 D
1E
b00010111 J
1K
b00010111 P
#235000000
0%
0'
b00010111 .
b00010111 0
0E
b00010111 I
0K
b00010111 O
#240000000
1%
1'
b00010110000101101 1
b00010111000000001 2
b0001011000010110 5
b0001011100000000 6
b1 7
b0 8
b00010110 ?
b00010111 @
b00010110 C
b00000000 D
1E
b00011000 J
1K
b00011000 P
#245000000
0%
0'
b00011000 .
b00011000 0
0E
b00011000 I
0K
b00011000 O
#250000000
1%
1'
b00010111000000001 1
b00011000000110001 2
b0001011100000000 5
b0001100000011000 6
b0 7
b1 8
b00010111 ?
b00011000 @
b00000000 C
b00011000 D
1E
b00011001 J
1K
b00011001 P
#255000000
0%
0'
b00011001 .
b00011001 0
0E
b00011001 I
0K
b00011001 O
#260000000
1%
1'
b00011000000110001 1
b00011001000000001 2
b0001100000011000 5
b0001100100000000 6
b1 7
b0 8
b00011000 ?
b00011001 @
b00011000 C
b00000000 D
1E
b00011010 J
1K
b00011010 P
#265000000
0%
0'
b00011010 .
b00011010 0
0E
b00011010 I
0K
b00011010 O
#270000000
1%
1'
b00011001000000001 1
b00011010000110101 2
b0001100100000000 5
b0001101000011010 6
b0 7
b1 8
b00011001 ?
b00011010 @
b00000000 C
b00011010 D
1E
b00011011 J
1K
b00011011 P
#275000000
0%
0'
b00011011 .
b00011011 0
0E
b00011011 I
0K
b00011011 O
#280000000
1%
1'
b00011010000110101 1
b00011011000000001 2
b0001101000011010 5
b0001101100000000 6
b1 7
b0 8
b00011010 ?
b00011011 @
b00011010 C
b00000000 D
1E
b00011100 J
1K
b00011100 P
#285000000
0%
0'
b00011100 .
b00011100 0
0E
b00011100 I
0K
b00011100 O
#290000000
1%
1'
b00011011000000001 1
b00011100000111001 2
b0001101100000000 5
b0001110000011100 6
b0 7
b1 8
b00011011 ?
b00011100 @
b00000000 C
b00011100 D
1E
b00011101 J
1K
b00011101 P
#295000000
0%
0'
b00011101 .
b00011101 0
0E
b00011101 I
0K
b00011101 O
#300000000
1%
1'
b00011100000111001 1
b00011101000000001 2
b0001110000011100 5
b0001110100000000 6
b1 7
b0 8
b00011100 ?
b00011101 @
b00011100 C
b00000000 D
1E
b00011110 J
1K
b00011110 P
#305000000
0%
0'
b00011110 .
b00011110 0
0E
b00011110 I
0K
b00011110 O
#310000000
1%
1'
b00011101000000001 1
b00011110000111101 2
b0001110100000000 5
b0001111000011110 6
b0 7
b1 8
b00011101 ?
b00011110 @
b00000000 C
b00011110 D
1E
b00011111 J
1K
b00011111 P
#315000000
0%
0'
b00011111 .
b00011111 0
0E
b00011111 I
0K
b00011111 O
#320000000
1%
1'
b00011110000111101 1
b00011111000000001 2
b0001111000011110 5
b0001111100000000 6
b1 7
b0 8
b00011110 ?
b00011111 @
b00011110 C
b00000000 D
1E
b00100000 J
1K
b00100000 P
#325000000
0%
0'
b00100000 .
b00100000 0
0E
b00100000 I
0K
b00100000 O
#330000000
1%
1'
b00011111000000001 1
b00100000001000001 2
b0001111100000000 5
b0010000000100000 6
b0 7
b1 8
b00011111 ?
b00100000 @
b00000000 C
b00100000 D
1E
b00100001 J
1K
b00100001 P
#335000000
0%
0'
b00100001 .
b00100001 0
0E
b00100001 I
0K
b00100001 O
#340000000
1%
1'
b00100000001000001 1
b00100001000000001 2
b0010000000100000 5
b0010000100000000 6
b1 7
b0 8
b00100000 ?
b00100001 @
b00100000 C
b00000000 D
1E
b00100010 J
1K
b00100010 P
#345000000
0%
0'
b00100010 .
b00100010 0
0E
b00100010 I
0K
b00100010 O
#350000000
1%
1'
b00100001000000001 1
b00100010001000101 2
b0010000100000000 5
b0010001000100010 6
b0 7
b1 8
b00100001 ?
b00100010 @
b00000000 C
b00100010 D
1E
b00100011 J
1K
b00100011 P
#355000000
0%
0'
b00100011 .
b00100011 0
0E
b00100011 I
0K
b00100011 O
#360000000
1%
1'
b00100010001000101 1
b00100011000000001 2
b0010001000100010 5
b0010001100000000 6
b1 7
b0 8
b00100010 ?
b00100011 @
b00100010 C
b00000000 D
1E
b00100100 J
1K
b00100100 P
#365000000
0%
0'
b00100100 .
b00100100 0
0E
b00100100 I
0K
b00100100 O
#370000000
1%
1'
b00100011000000001 1
b00100100001001001 2
b0010001100000000 5
b0010010000100100 6
b0 7
b1 8
b00100011 ?
b00100100 @
b00000000 C
b00100100 D
1E
b00100101 J
1K
b00100101 P
#375000000
0%
0'
b00100101 .
b00100101 0
0E
b00100101 I
0K
b00100101 O
#380000000
1%
1'
b00100100001001001 1
b00100101000000001 2
b0010010000100100 5
b0010010100000000 6
b1 7
b0 8
b00100100 ?
b00100101 @
b00100100 C
b00000000 D
1E
b00100110 J
1K
b00100110 P
#385000000
0%
0'
b00100110 .
b00100110 0
0E
b00100110 I
0K
b00100110 O
#390000000
1%
1'
b00100101000000001 1
b00100110001001101 2
b0010010100000000 5
b0010011000100110 6
b0 7
b1 8
b00100101 ?
b00100110 @
b00000000 C
b00100110 D
1E
b00100111 J
1K
b00100111 P
#395000000
0%
0'
b00100111 .
b00100111 0
0E
b00100111 I
0K
b00100111 O
#400000000
1%
1'
b00100110001001101 1
b00100111000000001 2
b0010011000100110 5
b0010011100000000 6
b1 7
b0 8
b00100110 ?
b00100111 @
b00100110 C
b00000000 D
1E
b00101000 J
1K
b00101000 P
#405000000
0%
0'
b00101000 .
b00101000 0
0E
b00101000 I
0K
b00101000 O
#410000000
1%
1'
b00100111000000001 1
b00101000001010001 2
b0010011100000000 5
b0010100000101000 6
b0 7
b1 8
b00100111 ?
b00101000 @
b00000000 C
b00101000 D
1E
b00101001 J
1K
b00101001 P
#415000000
0%
0'
b00101001 .
b00101001 0
0E
b00101001 I
0K
b00101001 O
#420000000
1%
1'
b00101000001010001 1
b00101001000000001 2
b0010100000101000 5
b0010100100000000 6
b1 7
b0 8
b00101000 ?
b00101001 @
b00101000 C
b00000000 D
1E
b00101010 J
1K
b00101010 P
#425000000
0%
0'
b00101010 .
b00101010 0
0E
b00101010 I
0K
b00101010 O
#430000000
1%
1'
b00101001000000001 1
b00101010001010101 2
b0010100100000000 5
b0010101000101010 6
b0 7
b1 8
b00101001 ?
b00101010 @
b00000000 C
b00101010 D
1E
b00101011 J
1K
b00101011 P
#435000000
0%
0'
b00101011 .
b00101011 0
0E
b00101011 I
0K
b00101011 O
#440000000
1%
1'
b00101010001010101 1
b00101011000000001 2
b0010101000101010 5
b0010101100000000 6
b1 7
b0 8
b00101010 ?
b00101011 @
b00101010 C
b00000000 D
1E
b00101100 J
1K
b00101100 P
#445000000
0%
0'
b00101100 .
b00101100 0
0E
b00101100 I
0K
b00101100 O
#450000000
1%
1'
b00101011000000001 1
b00101100001011001 2
b0010101100000000 5
b0010110000101100 6
b0 7
b1 8
b00101011 ?
b00101100 @
b00000000 C
b00101100 D
1E
b00101101 J
1K
b00101101 P
#455000000
0%
0'
b00101101 .
b00101101 0
0E
b00101101 I
0K
b00101101 O
#460000000
1%
1'
b00101100001011001 1
b00101101000000001 2
b0010110000101100 5
b0010110100000000 6
b1 7
b0 8
b00101100 ?
b00101101 @
b00101100 C
b00000000 D
1E
b00101110 J
1K
b00101110 P
#465000000
0%
0'
b00101110 .
b00101110 0
0E
b00101110 I
0K
b00101110 O
#470000000
1%
1'
b00101101000000001 1
b00101110001011101 2
b0010110100000000 5
b0010111000101110 6
b0 7
b1 8
b00101101 ?
b00101110 @
b00000000 C
b00101110 D
1E
b00101111 J
1K
b00101111 P
#475000000
0%
0'
b00101111 .
b00101111 0
0E
b00101111 I
0K
b00101111 O
#480000000
1%
1'
b00101110001011101 1
b00101111000000001 2
b0010111000101110 5
b0010111100000000 6
b1 7
b0 8
b00101110 ?
b00101111 @
b00101110 C
b00000000 D
1E
b00110000 J
1K
b00110000 P
#485000000
0%
0'
b00110000 .
b00110000 0
0E
b00110000 I
0K
b00110000 O
#490000000
1%
1'
b00101111000000001 1
b00110000001100001 2
b0010111100000000 5
b0011000000110000 6
b0 7
b1 8
b00101111 ?
b00110000 @
b00000000 C
b00110000 D
1E
b00110001 J
1K
b00110001 P
#495000000
0%
0'
b00110001 .
b00110001 0
0E
b00110001 I
0K
b00110001 O
#500000000
1%
1'
b00110000001100001 1
b00110001000000001 2
b0011000000110000 5
b0011000100000000 6
b1 7
b0 8
b00110000 ?
b00110001 @
b00110000 C
b00000000 D
1E
b00110010 J
1K
b00110010 P
#505000000
0%
0'
b00110010 .
b00110010 0
0E
b00110010 I
0K
b00110010 O
#510000000
1%
1'
b00110001000000001 1
b00110010001100101 2
b0011000100000000 5
b0011001000110010 6
b0 7
b1 8
b00110001 ?
b00110010 @
b00000000 C
b00110010 D
1E
b00110011 J
1K
b00110011 P
#515000000
0%
0'
b00110011 .
b00110011 0
0E
b00110011 I
0K
b00110011 O
#520000000
1%
1'
b00110010001100101 1
b00110011000000001 2
b0011001000110010 5
b0011001100000000 6
b1 7
b0 8
b00110010 ?
b00110011 @
b00110010 C
b00000000 D
1E
b00110100 J
1K
b00110100 P
#525000000
0%
0'
b00110100 .
b00110100 0
0E
b00110100 I
0K
b00110100 O
#530000000
1%
1'
b00110011000000001 1
b00110100001101001 2
b0011001100000000 5
b0011010000110100 6
b0 7
b1 8
b00110011 ?
b00110100 @
b00000000 C
b00110100 D
1E
b00110101 J
1K
b00110101 P
#535000000
0%
0'
b00110101 .
b00110101 0
0E
b00110101 I
0K
b00110101 O
#540000000
1%
1'
b00110100001101001 1
b00110101000000001 2
b0011010000110100 5
b0011010100000000 6
b1 7
b0 8
b00110100 ?
b00110101 @
b00110100 C
b00000000 D
1E
b00110110 J
1K
b00110110 P
#545000000
0%
0'
b00110110 .
b00110110 0
0E
b00110110 I
0K
b00110110 O
#550000000
1%
1'
b00110101000000001 1
b00110110001101101 2
b0011010100000000 5
b0011011000110110 6
b0 7
b1 8
b00110101 ?
b00110110 @
b00000000 C
b00110110 D
1E
b00110111 J
1K
b00110111 P
#555000000
0%
0'
b00110111 .
b00110111 0
0E
b00110111 I
0K
b00110111 O
#560000000
1%
1'
b00110110001101101 1
b00110111000000001 2
b0011011000110110 5
b0011011100000000 6
b1 7
b0 8
b00110110 ?
b00110111 @
b00110110 C
b00000000 D
1E
b00111000 J
1K
b00111000 P
#565000000
0%
0'
b00111000 .
b00111000 0
0E
b00111000 I
0K
b00111000 O
#570000000
1%
1'
b00110111000000001 1
b00111000001110001 2
b0011011100000000 5
b0011100000111000 6
b0 7
b1 8
b00110111 ?
b00111000 @
b00000000 C
b00111000 D
1E
b00111001 J
1K
b00111001 P
#575000000
0%
0'
b00111001 .
b00111001 0
0E
b00111001 I
0K
b00111001 O
#580000000
1%
1'
b00111000001110001 1
b00111001000000001 2
b0011100000111000 5
b0011100100000000 6
b1 7
b0 8
b00111000 ?
b00111001 @
b00111000 C
b00000000 D
1E
b00111010 J
1K
b00111010 P
#585000000
0%
0'
b00111010 .
b00111010 0
0E
b00111010 I
0K
b00111010 O
#590000000
1%
1'
b00111001000000001 1
b00111010001110101 2
b0011100100000000 5
b0011101000111010 6
b0 7
b1 8
b00111001 ?
b00111010 @
b00000000 C
b00111010 D
1E
b00111011 J
1K
b00111011 P
#595000000
0%
0'
b00111011 .
b00111011 0
0E
b00111011 I
0K
b00111011 O
#600000000
1%
1'
b00111010001110101 1
b00111011000000001 2
b0011101000111010 5
b0011101100000000 6
b1 7
b0 8
b00111010 ?
b00111011 @
b00111010 C
b00000000 D
1E
b00111100 J
1K
b00111100 P
#605000000
0%
0'
b00111100 .
b00111100 0
0E
b00111100 I
0K
b00111100 O
#610000000
1%
1'
b00111011000000001 1
b00111100001111001 2
b0011101100000000 5
b0011110000111100 6
b0 7
b1 8
b00111011 ?
b00111100 @
b00000000 C
b00111100 D
1E
b00111101 J
1K
b00111101 P
#615000000
0%
0'
b00111101 .
b00111101 0
0E
b00111101 I
0K
b00111101 O
#620000000
1%
1'
b00111100001111001 1
b00111101000000001 2
b0011110000111100 5
b0011110100000000 6
b1 7
b0 8
b00111100 ?
b00111101 @
b00111100 C
b00000000 D
1E
b00111110 J
1K
b00111110 P
#625000000
0%
0'
b00111110 .
b00111110 0
0E
b00111110 I
0K
b00111110 O
#630000000
1%
1'
b00111101000000001 1
b00111110001111101 2
b0011110100000000 5
b0011111000111110 6
b0 7
b1 8
b00111101 ?
b00111110 @
b00000000 C
b00111110 D
1E
b00111111 J
1K
b00111111 P
#635000000
0%
0'
b00111111 .
b00111111 0
0E
b00111111 I
0K
b00111111 O
#640000000
1%
1'
b00111110001111101 1
b00111111000000001 2
b0011111000111110 5
b0011111100000000 6
b1 7
b0 8
b00111110 ?
b00111111 @
b00111110 C
b00000000 D
1E
b01000000 J
1K
b01000000 P
#645000000
0%
0'
b01000000 .
b01000000 0
0E
b01000000 I
0K
b01000000 O
#650000000
1%
1'
b00111111000000001 1
b01000000010000001 2
b0011111100000000 5
b0100000001000000 6
b0 7
b1 8
b00111111 ?
b01000000 @
b00000000 C
b01000000 D
1E
b01000001 J
1K
b01000001 P
#655000000
0%
0'
b01000001 .
b01000001 0
0E
b01000001 I
0K
b01000001 O
#660000000
1%
1'
b01000000010000001 1
b01000001000000001 2
b0100000001000000 5
b0100000100000000 6
b1 7
b0 8
b01000000 ?
b01000001 @
b01000000 C
b00000000 D
1E
b01000010 J
1K
b01000010 P
#665000000
0%
0'
b01000010 .
b01000010 0
0E
b01000010 I
0K
b01000010 O
#670000000
1%
1'
b01000001000000001 1
b01000010010000101 2
b0100000100000000 5
b0100001001000010 6
b0 7
b1 8
b01000001 ?
b01000010 @
b00000000 C
b01000010 D
1E
b01000011 J
1K
b01000011 P
#675000000
0%
0'
b01000011 .
b01000011 0
0E
b01000011 I
0K
b01000011 O
#680000000
1%
1'
b01000010010000101 1
b01000011000000001 2
b0100001001000010 5
b0100001100000000 6
b1 7
b0 8
b01000010 ?
b01000011 @
b01000010 C
b00000000 D
1E
b01000100 J
1K
b01000100 P
#685000000
0%
0'
b01000100 .
b01000100 0
0E
b01000100 I
0K
b01000100 O
#690000000
1%
1'
b01000011000000001 1
b01000100010001001 2
b0100001100000000 5
b0100010001000100 6
b0 7
b1 8
b01000011 ?
b01000100 @
b00000000 C
b01000100 D
1E
b01000101 J
1K
b01000101 P
#695000000
0%
0'
b01000101 .
b01000101 0
0E
b01000101 I
0K
b01000101 O
#700000000
1%
1'
b01000100010001001 1
b01000101000000001 2
b0100010001000100 5
b0100010100000000 6
b1 7
b0 8
b01000100 ?
b01000101 @
b01000100 C
b00000000 D
1E
b01000110 J
1K
b01000110 P
#705000000
0%
0'
b01000110 .
b01000110 0
0E
b01000110 I
0K
b01000110 O
#710000000
1%
1'
b01000101000000001 1
b01000110010001101 2
b0100010100000000 5
b0100011001000110 6
b0 7
b1 8
b01000101 ?
b01000110 @
b00000000 C
b01000110 D
1E
b01000111 J
1K
b01000111 P
#715000000
0%
0'
b01000111 .
b01000111 0
0E
b01000111 I
0K
b01000111 O
#720000000
1%
1'
b01000110010001101 1
b01000111000000001 2
b0100011001000110 5
b0100011100000000 6
b1 7
b0 8
b01000110 ?
b01000111 @
b01000110 C
b00000000 D
1E
b01001000 J
1K
b01001000 P
#725000000
0%
0'
b01001000 .
b01001000 0
0E
b01001000 I
0K
b01001000 O
#730000000
1%
1'
b01000111000000001 1
b01001000010010001 2
b0100011100000000 5
b0100100001001000 6
b0 7
b1 8
b01000111 ?
b01001000 @
b00000000 C
b01001000 D
1E
b01001001 J
1K
b01001001 P
#735000000
0%
0'
b01001001 .
b01001001 0
0E
b01001001 I
0K
b01001001 O
#740000000
1%
1'
b01001000010010001 1
b01001001000000001 2
b0100100001001000 5
b0100100100000000 6
b1 7
b0 8
b01001000 ?
b01001001 @
b01001000 C
b00000000 D
1E
b01001010 J
1K
b01001010 P
#745000000
0%
0'
b01001010 .
b01001010 0
0E
b01001010 I
0K
b01001010 O
#750000000
1%
1'
b01001001000000001 1
b01001010010010101 2
b0100100100000000 5
b0100101001001010 6
b0 7
b1 8
b01001001 ?
b01001010 @
b00000000 C
b01001010 D
1E
b01001011 J
1K
b01001011 P
#755000000
0%
0'
b01001011 .
b01001011 0
0E
b01001011 I
0K
b01001011 O
#760000000
1%
1'
b01001010010010101 1
b01001011000000001 2
b0100101001001010 5
b0100101100000000 6
b1 7
b0 8
b01001010 ?
b01001011 @
b01001010 C
b00000000 D
1E
b01001100 J
1K
b01001100 P
#765000000
0%
0'
b01001100 .
b01001100 0
0E
b01001100 I
0K
b01001100 O
#770000000
1%
1'
b01001011000000001 1
b01001100010011001 2
b0100101100000000 5
b0100110001001100 6
b0 7
b1 8
b01001011 ?
b01001100 @
b00000000 C
b01001100 D
1E
b01001101 J
1K
b01001101 P
#775000000
0%
0'
b01001101 .
b01001101 0
0E
b01001101 I
0K
b01001101 O
#780000000
1%
1'
b01001100010011001 1
b01001101000000001 2
b0100110001001100 5
b0100110100000000 6
b1 7
b0 8
b01001100 ?
b01001101 @
b01001100 C
b00000000 D
1E
b01001110 J
1K
b01001110 P
#785000000
0%
0'
b01001110 .
b01001110 0
0E
b01001110 I
0K
b01001110 O
#790000000
1%
1'
b01001101000000001 1
b01001110010011101 2
b0100110100000000 5
b0100111001001110 6
b0 7
b1 8
b01001101 ?
b01001110 @
b00000000 C
b01001110 D
1E
b01001111 J
1K
b01001111 P
#795000000
0%
0'
b01001111 .
b01001111 0
0E
b01001111 I
0K
b01001111 O
#800000000
1%
1'
b01001110010011101 1
b01001111000000001 2
b0100111001001110 5
b0100111100000000 6
b1 7
b0 8
b01001110 ?
b01001111 @
b01001110 C
b00000000 D
1E
b01010000 J
1K
b01010000 P
#805000000
0%
0'
b01010000 .
b01010000 0
0E
b01010000 I
0K
b01010000 O
#810000000
1%
1'
b01001111000000001 1
b01010000010100001 2
b0100111100000000 5
b0101000001010000 6
b0 7
b1 8
b01001111 ?
b01010000 @
b00000000 C
b01010000 D
1E
b01010001 J
1K
b01010001 P
#815000000
0%
0'
b01010001 .
b01010001 0
0E
b01010001 I
0K
b01010001 O
#820000000
1%
1'
b01010000010100001 1
b01010001000000001 2
b0101000001010000 5
b0101000100000000 6
b1 7
b0 8
b01010000 ?
b01010001 @
b01010000 C
b00000000 D
1E
b01010010 J
1K
b01010010 P
#825000000
0%
0'
b01010010 .
b01010010 0
0E
b01010010 I
0K
b01010010 O
#830000000
1%
1'
b01010001000000001 1
b01010010010100101 2
b0101000100000000 5
b0101001001010010 6
b0 7
b1 8
b01010001 ?
b01010010 @
b00000000 C
b01010010 D
1E
b01010011 J
1K
b01010011 P
#835000000
0%
0'
b01010011 .
b01010011 0
0E
b01010011 I
0K
b01010011 O
#840000000
1%
1'
b01010010010100101 1
b01010011000000001 2
b0101001001010010 5
b0101001100000000 6
b1 7
b0 8
b01010010 ?
b01010011 @
b01010010 C
b00000000 D
1E
b01010100 J
1K
b01010100 P
#845000000
0%
0'
b01010100 .
b01010100 0
0E
b01010100 I
0K
b01010100 O
#850000000
1%
1'
b01010011000000001 1
b01010100010101001 2
b0101001100000000 5
b0101010001010100 6
b0 7
b1 8
b01010011 ?
b01010100 @
b00000000 C
b01010100 D
1E
b01010101 J
1K
b01010101 P
#855000000
0%
0'
b01010101 .
b01010101 0
0E
b01010101 I
0K
b01010101 O
#860000000
1%
1'
b01010100010101001 1
b01010101000000001 2
b0101010001010100 5
b0101010100000000 6
b1 7
b0 8
b01010100 ?
b01010101 @
b01010100 C
b00000000 D
1E
b01010110 J
1K
b01010110 P
#865000000
0%
0'
b01010110 .
b01010110 0
0E
b01010110 I
0K
b01010110 O
#870000000
1%
1'
b01010101000000001 1
b01010110010101101 2
b0101010100000000 5
b0101011001010110 6
b0 7
b1 8
b01010101 ?
b01010110 @
b00000000 C
b01010110 D
1E
b01010111 J
1K
b01010111 P
