target/tb.vcd
$date
  Tue Feb 20 23:12:25 2024
$end
$version
  GHDL v0
$end
$timescale
  1 fs
$end
$scope module standard $end
$upscope $end
$scope module std_logic_1164 $end
$upscope $end
$scope module numeric_std $end
$upscope $end
$scope module runtime $end
$upscope $end
$scope module textio $end
$upscope $end
$scope module tb_main $end
$var reg 1 ! tb_run $end
$var reg 1 " tb_argument[0:0] $end
$var reg 2 # tb_result[0:1] $end
$var reg 1 $ tb_rdy[0:0] $end
$var reg 1 % tb_clk $end
$var reg 1 & rst $end
$scope module u1 $end
$var reg 1 ' clk $end
$var reg 1 ( reset $end
$var reg 1 ) run $end
$var reg 1 * rdy[0:0] $end
$var reg 1 + argument[0:0] $end
$var reg 2 , result[0:1] $end
$comment state is not handled $end
$comment state_var246 is not handled $end
$comment state_var245 is not handled $end
$comment state_var244 is not handled $end
$comment state_var243 is not handled $end
$comment state_var242 is not handled $end
$comment state_var241 is not handled $end
$comment state_var240 is not handled $end
$comment state_var239 is not handled $end
$comment state_var238 is not handled $end
$comment state_var237 is not handled $end
$comment state_var236 is not handled $end
$comment state_var235 is not handled $end
$comment state_var234 is not handled $end
$comment state_var233 is not handled $end
$comment state_var232 is not handled $end
$comment state_var231 is not handled $end
$comment state_var230 is not handled $end
$comment tab is not handled $end
$var reg 32 - \$tab_value\[0:31] $end
$var integer 32 . \$tab_ptr\ $end
$var integer 32 / \$tab_ptr_write\ $end
$var reg 32 0 \$tab_write\[0:31] $end
$var reg 1 1 \$tab_write_request\ $end
$upscope $end
$upscope $end
$enddefinitions $end
#0
0!
bU "
bUU #
bU $
1%
1&
1'
1(
0)
bU *
bU +
bUU ,
bUUUUUUUUUUUUUUUUUUUUUUUUUUUUUUUU -
b0 .
b0 /
bUUUUUUUUUUUUUUUUUUUUUUUUUUUUUUUU 0
01
#2000000
0&
0(
#5000000
0%
0'
#10000000
1!
b10 #
b1 $
1%
1'
1)
b1 *
b10 ,
b00000000000000000000000001100100 -
#15000000
0%
0'
#20000000
1%
1'
#25000000
0%
0'
#30000000
1%
1'
b1 .
#35000000
0%
0'
#40000000
1%
1'
b00000000000000000000000000000000 0
11
#45000000
0%
0'
#50000000
1%
1'
b1 /
b00000000000000000000000000000010 0
#55000000
0%
0'
#60000000
1%
1'
01
#65000000
0%
0'
#70000000
1%
1'
b00000000000000000000000000000010 -
b10 .
#75000000
0%
0'
#80000000
1%
1'
b00000000000000000000000001100100 -
b11 .
#85000000
0%
0'
#90000000
1%
1'
b10 /
b00000000000000000000000000000100 0
11
#95000000
0%
0'
#100000000
1%
1'
b11 /
b00000000000000000000000000000110 0
#105000000
0%
0'
#110000000
1%
1'
01
#115000000
0%
0'
#120000000
1%
1'
b00000000000000000000000000000110 -
b100 .
#125000000
0%
0'
#130000000
1%
1'
b00000000000000000000000001100100 -
b101 .
#135000000
0%
0'
#140000000
1%
1'
b100 /
b00000000000000000000000000001000 0
11
#145000000
0%
0'
#150000000
1%
1'
b101 /
b00000000000000000000000000001010 0
#155000000
0%
0'
#160000000
1%
1'
01
#165000000
0%
0'
#170000000
1%
1'
b00000000000000000000000000001010 -
b110 .
#175000000
0%
0'
#180000000
1%
1'
b00000000000000000000000001100100 -
b111 .
#185000000
0%
0'
#190000000
1%
1'
b110 /
b00000000000000000000000000001100 0
11
#195000000
0%
0'
#200000000
1%
1'
b111 /
b00000000000000000000000000001110 0
#205000000
0%
0'
#210000000
1%
1'
01
#215000000
0%
0'
#220000000
1%
1'
b00000000000000000000000000001110 -
b1000 .
#225000000
0%
0'
#230000000
1%
1'
b00000000000000000000000001100100 -
b1001 .
#235000000
0%
0'
#240000000
1%
1'
b1000 /
b00000000000000000000000000010000 0
11
#245000000
0%
0'
#250000000
1%
1'
b1001 /
b00000000000000000000000000010010 0
#255000000
0%
0'
#260000000
1%
1'
01
#265000000
0%
0'
#270000000
1%
1'
b00000000000000000000000000010010 -
b1010 .
#275000000
0%
0'
#280000000
1%
1'
b00000000000000000000000001100100 -
b1011 .
#285000000
0%
0'
#290000000
1%
1'
b1010 /
b00000000000000000000000000010100 0
11
#295000000
0%
0'
#300000000
1%
1'
b1011 /
b00000000000000000000000000010110 0
#305000000
0%
0'
#310000000
1%
1'
01
#315000000
0%
0'
#320000000
1%
1'
b00000000000000000000000000010110 -
b1100 .
#325000000
0%
0'
#330000000
1%
1'
b00000000000000000000000001100100 -
b1101 .
#335000000
0%
0'
#340000000
1%
1'
b1100 /
b00000000000000000000000000011000 0
11
#345000000
0%
0'
#350000000
1%
1'
b1101 /
b00000000000000000000000000011010 0
#355000000
0%
0'
#360000000
1%
1'
01
#365000000
0%
0'
#370000000
1%
1'
b00000000000000000000000000011010 -
b1110 .
#375000000
0%
0'
#380000000
1%
1'
b00000000000000000000000001100100 -
b1111 .
#385000000
0%
0'
#390000000
1%
1'
b1110 /
b00000000000000000000000000011100 0
11
#395000000
0%
0'
#400000000
1%
1'
b1111 /
b00000000000000000000000000011110 0
#405000000
0%
0'
#410000000
1%
1'
01
#415000000
0%
0'
#420000000
1%
1'
b00000000000000000000000000011110 -
b10000 .
#425000000
0%
0'
#430000000
1%
1'
b00000000000000000000000001100100 -
b10001 .
#435000000
0%
0'
#440000000
1%
1'
b10000 /
b00000000000000000000000000100000 0
11
#445000000
0%
0'
#450000000
1%
1'
b10001 /
b00000000000000000000000000100010 0
#455000000
0%
0'
#460000000
1%
1'
01
#465000000
0%
0'
#470000000
1%
1'
b00000000000000000000000000100010 -
b10010 .
#475000000
0%
0'
#480000000
1%
1'
b00000000000000000000000001100100 -
b10011 .
#485000000
0%
0'
#490000000
1%
1'
b10010 /
b00000000000000000000000000100100 0
11
#495000000
0%
0'
#500000000
1%
1'
b10011 /
b00000000000000000000000000100110 0
#505000000
0%
0'
#510000000
1%
1'
01
#515000000
0%
0'
#520000000
1%
1'
b00000000000000000000000000100110 -
b10100 .
#525000000
0%
0'
#530000000
1%
1'
b00000000000000000000000001100100 -
b10101 .
#535000000
0%
0'
#540000000
1%
1'
b10100 /
b00000000000000000000000000101000 0
11
#545000000
0%
0'
#550000000
1%
1'
b10101 /
b00000000000000000000000000101010 0
#555000000
0%
0'
#560000000
1%
1'
01
#565000000
0%
0'
#570000000
1%
1'
b00000000000000000000000000101010 -
b10110 .
#575000000
0%
0'
#580000000
1%
1'
b00000000000000000000000001100100 -
b10111 .
#585000000
0%
0'
#590000000
1%
1'
b10110 /
b00000000000000000000000000101100 0
11
#595000000
0%
0'
#600000000
1%
1'
b10111 /
b00000000000000000000000000101110 0
#605000000
0%
0'
#610000000
1%
1'
01
#615000000
0%
0'
#620000000
1%
1'
b00000000000000000000000000101110 -
b11000 .
#625000000
0%
0'
#630000000
1%
1'
b00000000000000000000000001100100 -
b11001 .
#635000000
0%
0'
#640000000
1%
1'
b11000 /
b00000000000000000000000000110000 0
11
#645000000
0%
0'
#650000000
1%
1'
b11001 /
b00000000000000000000000000110010 0
#655000000
0%
0'
#660000000
1%
1'
01
#665000000
0%
0'
#670000000
1%
1'
b00000000000000000000000000110010 -
b11010 .
#675000000
0%
0'
#680000000
1%
1'
b00000000000000000000000001100100 -
b11011 .
#685000000
0%
0'
#690000000
1%
1'
b11010 /
b00000000000000000000000000110100 0
11
#695000000
0%
0'
#700000000
1%
1'
b11011 /
b00000000000000000000000000110110 0
#705000000
0%
0'
#710000000
1%
1'
01
#715000000
0%
0'
#720000000
1%
1'
b00000000000000000000000000110110 -
b11100 .
#725000000
0%
0'
#730000000
1%
1'
b00000000000000000000000001100100 -
b11101 .
#735000000
0%
0'
#740000000
1%
1'
b11100 /
b00000000000000000000000000111000 0
11
#745000000
0%
0'
#750000000
1%
1'
b11101 /
b00000000000000000000000000111010 0
#755000000
0%
0'
#760000000
1%
1'
01
#765000000
0%
0'
#770000000
1%
1'
b00000000000000000000000000111010 -
b11110 .
#775000000
0%
0'
#780000000
1%
1'
b00000000000000000000000001100100 -
b11111 .
#785000000
0%
0'
#790000000
1%
1'
b11110 /
b00000000000000000000000000111100 0
11
#795000000
0%
0'
#800000000
1%
1'
b11111 /
b00000000000000000000000000111110 0
#805000000
0%
0'
#810000000
1%
1'
01
#815000000
0%
0'
#820000000
1%
1'
b00000000000000000000000000111110 -
b100000 .
#825000000
0%
0'
#830000000
1%
1'
b00000000000000000000000001100100 -
b100001 .
#835000000
0%
0'
#840000000
1%
1'
b100000 /
b00000000000000000000000001000000 0
11
#845000000
0%
0'
#850000000
1%
1'
b100001 /
b00000000000000000000000001000010 0
#855000000
0%
0'
#860000000
1%
1'
01
#865000000
0%
0'
#870000000
1%
1'
b00000000000000000000000001000010 -
b100010 .
#875000000
0%
0'
#880000000
1%
1'
b00000000000000000000000001100100 -
b100011 .
#885000000
0%
0'
#890000000
1%
1'
b100010 /
b00000000000000000000000001000100 0
11
#895000000
0%
0'
#900000000
1%
1'
b100011 /
b00000000000000000000000001000110 0
#905000000
0%
0'
#910000000
1%
1'
01
#915000000
0%
0'
#920000000
1%
1'
b00000000000000000000000001000110 -
b100100 .
#925000000
0%
0'
#930000000
1%
1'
b00000000000000000000000001100100 -
b100101 .
#935000000
0%
0'
#940000000
1%
1'
b100100 /
b00000000000000000000000001001000 0
11
#945000000
0%
0'
#950000000
1%
1'
b100101 /
b00000000000000000000000001001010 0
#955000000
0%
0'
#960000000
1%
1'
01
#965000000
0%
0'
#970000000
1%
1'
b00000000000000000000000001001010 -
b100110 .
#975000000
0%
0'
#980000000
1%
1'
b00000000000000000000000001100100 -
b100111 .
#985000000
0%
0'
#990000000
1%
1'
b100110 /
b00000000000000000000000001001100 0
11
#995000000
0%
0'
#1000000000
1%
1'
b100111 /
b00000000000000000000000001001110 0
#1005000000
0%
0'
#1010000000
1%
1'
01
#1015000000
0%
0'
#1020000000
1%
1'
b00000000000000000000000001001110 -
b101000 .
#1025000000
0%
0'
#1030000000
1%
1'
b00000000000000000000000001100100 -
b101001 .
#1035000000
0%
0'
#1040000000
1%
1'
b101000 /
b00000000000000000000000001010000 0
11
#1045000000
0%
0'
#1050000000
1%
1'
b101001 /
b00000000000000000000000001010010 0
#1055000000
0%
0'
#1060000000
1%
1'
01
#1065000000
0%
0'
#1070000000
1%
1'
b00000000000000000000000001010010 -
b101010 .
#1075000000
0%
0'
#1080000000
1%
1'
b00000000000000000000000001100100 -
b101011 .
#1085000000
0%
0'
#1090000000
1%
1'
b101010 /
b00000000000000000000000001010100 0
11
#1095000000
0%
0'
#1100000000
1%
1'
b101011 /
b00000000000000000000000001010110 0
#1105000000
0%
0'
#1110000000
1%
1'
01
#1115000000
0%
0'
#1120000000
1%
1'
b00000000000000000000000001010110 -
b101100 .
#1125000000
0%
0'
#1130000000
1%
1'
b00000000000000000000000001100100 -
b101101 .
#1135000000
0%
0'
#1140000000
1%
1'
b101100 /
b00000000000000000000000001011000 0
11
#1145000000
0%
0'
#1150000000
1%
1'
b101101 /
b00000000000000000000000001011010 0
#1155000000
0%
0'
#1160000000
1%
1'
01
#1165000000
0%
0'
#1170000000
1%
1'
b00000000000000000000000001011010 -
b101110 .
#1175000000
0%
0'
#1180000000
1%
1'
b00000000000000000000000001100100 -
b101111 .
#1185000000
0%
0'
#1190000000
1%
1'
b101110 /
b00000000000000000000000001011100 0
11
#1195000000
0%
0'
#1200000000
1%
1'
b101111 /
b00000000000000000000000001011110 0
#1205000000
0%
0'
#1210000000
1%
1'
01
#1215000000
0%
0'
#1220000000
1%
1'
b00000000000000000000000001011110 -
b110000 .
#1225000000
0%
0'
#1230000000
1%
1'
b00000000000000000000000001100100 -
b110001 .
#1235000000
0%
0'
#1240000000
1%
1'
b110000 /
b00000000000000000000000001100000 0
11
#1245000000
0%
0'
#1250000000
1%
1'
b110001 /
b00000000000000000000000001100010 0
#1255000000
0%
0'
#1260000000
1%
1'
01
#1265000000
0%
0'
#1270000000
1%
1'
b00000000000000000000000001100010 -
b110010 .
#1275000000
0%
0'
#1280000000
1%
1'
b00000000000000000000000001100100 -
b110011 .
#1285000000
0%
0'
#1290000000
1%
1'
b110010 /
b00000000000000000000000001100100 0
11
#1295000000
0%
0'
#1300000000
1%
1'
b110011 /
b00000000000000000000000001100110 0
#1305000000
0%
0'
#1310000000
1%
1'
01
#1315000000
0%
0'
#1320000000
1%
1'
b00000000000000000000000001100110 -
b110100 .
#1325000000
0%
0'
#1330000000
1%
1'
b00000000000000000000000001100100 -
b110101 .
#1335000000
0%
0'
#1340000000
1%
1'
b110100 /
b00000000000000000000000001101000 0
11
#1345000000
0%
0'
#1350000000
1%
1'
b110101 /
b00000000000000000000000001101010 0
#1355000000
0%
0'
#1360000000
1%
1'
01
#1365000000
0%
0'
#1370000000
1%
1'
b00000000000000000000000001101010 -
b110110 .
#1375000000
0%
0'
#1380000000
1%
1'
b00000000000000000000000001100100 -
b110111 .
#1385000000
0%
0'
#1390000000
1%
1'
b110110 /
b00000000000000000000000001101100 0
11
#1395000000
0%
0'
#1400000000
1%
1'
b110111 /
b00000000000000000000000001101110 0
#1405000000
0%
0'
#1410000000
1%
1'
01
#1415000000
0%
0'
#1420000000
1%
1'
b00000000000000000000000001101110 -
b111000 .
#1425000000
0%
0'
#1430000000
1%
1'
b00000000000000000000000001100100 -
b111001 .
#1435000000
0%
0'
#1440000000
1%
1'
b111000 /
b00000000000000000000000001110000 0
11
#1445000000
0%
0'
#1450000000
1%
1'
b111001 /
b00000000000000000000000001110010 0
#1455000000
0%
0'
#1460000000
1%
1'
01
#1465000000
0%
0'
#1470000000
1%
1'
b00000000000000000000000001110010 -
b111010 .
#1475000000
0%
0'
#1480000000
1%
1'
b00000000000000000000000001100100 -
b111011 .
#1485000000
0%
0'
#1490000000
1%
1'
b111010 /
b00000000000000000000000001110100 0
11
#1495000000
0%
0'
#1500000000
1%
1'
b111011 /
b00000000000000000000000001110110 0
#1505000000
0%
0'
#1510000000
1%
1'
01
#1515000000
0%
0'
#1520000000
1%
1'
b00000000000000000000000001110110 -
b111100 .
#1525000000
0%
0'
#1530000000
1%
1'
b00000000000000000000000001100100 -
b111101 .
#1535000000
0%
0'
#1540000000
1%
1'
b111100 /
b00000000000000000000000001111000 0
11
#1545000000
0%
0'
#1550000000
1%
1'
b111101 /
b00000000000000000000000001111010 0
#1555000000
0%
0'
#1560000000
1%
1'
01
#1565000000
0%
0'
#1570000000
1%
1'
b00000000000000000000000001111010 -
b111110 .
#1575000000
0%
0'
#1580000000
1%
1'
b00000000000000000000000001100100 -
b111111 .
#1585000000
0%
0'
#1590000000
1%
1'
b111110 /
b00000000000000000000000001111100 0
11
#1595000000
0%
0'
#1600000000
1%
1'
b111111 /
b00000000000000000000000001111110 0
#1605000000
0%
0'
#1610000000
1%
1'
01
#1615000000
0%
0'
#1620000000
1%
1'
b00000000000000000000000001111110 -
b1000000 .
#1625000000
0%
0'
#1630000000
1%
1'
b00000000000000000000000001100100 -
b1000001 .
#1635000000
0%
0'
#1640000000
1%
1'
b1000000 /
b00000000000000000000000010000000 0
11
#1645000000
0%
0'
#1650000000
1%
1'
b1000001 /
b00000000000000000000000010000010 0
#1655000000
0%
0'
#1660000000
1%
1'
01
#1665000000
0%
0'
#1670000000
1%
1'
b00000000000000000000000010000010 -
b1000010 .
#1675000000
0%
0'
#1680000000
1%
1'
b00000000000000000000000001100100 -
b1000011 .
#1685000000
0%
0'
#1690000000
1%
1'
b1000010 /
b00000000000000000000000010000100 0
11
#1695000000
0%
0'
#1700000000
1%
1'
b1000011 /
b00000000000000000000000010000110 0
#1705000000
0%
0'
#1710000000
1%
1'
01
#1715000000
0%
0'
#1720000000
1%
1'
b00000000000000000000000010000110 -
b1000100 .
#1725000000
0%
0'
#1730000000
1%
1'
b00000000000000000000000001100100 -
b1000101 .
#1735000000
0%
0'
#1740000000
1%
1'
b1000100 /
b00000000000000000000000010001000 0
11
#1745000000
0%
0'
#1750000000
1%
1'
b1000101 /
b00000000000000000000000010001010 0
#1755000000
0%
0'
#1760000000
1%
1'
01
#1765000000
0%
0'
#1770000000
1%
1'
b00000000000000000000000010001010 -
b1000110 .
#1775000000
0%
0'
#1780000000
1%
1'
b00000000000000000000000001100100 -
b1000111 .
#1785000000
0%
0'
#1790000000
1%
1'
b1000110 /
b00000000000000000000000010001100 0
11
#1795000000
0%
0'
#1800000000
1%
1'
b1000111 /
b00000000000000000000000010001110 0
#1805000000
0%
0'
#1810000000
1%
1'
01
#1815000000
0%
0'
#1820000000
1%
1'
b00000000000000000000000010001110 -
b1001000 .
#1825000000
0%
0'
#1830000000
1%
1'
b00000000000000000000000001100100 -
b1001001 .
#1835000000
0%
0'
#1840000000
1%
1'
b1001000 /
b00000000000000000000000010010000 0
11
#1845000000
0%
0'
#1850000000
1%
1'
b1001001 /
b00000000000000000000000010010010 0
#1855000000
0%
0'
#1860000000
1%
1'
01
#1865000000
0%
0'
#1870000000
1%
1'
b00000000000000000000000010010010 -
b1001010 .
#1875000000
0%
0'
#1880000000
1%
1'
b00000000000000000000000001100100 -
b1001011 .
#1885000000
0%
0'
#1890000000
1%
1'
b1001010 /
b00000000000000000000000010010100 0
11
#1895000000
0%
0'
#1900000000
1%
1'
b1001011 /
b00000000000000000000000010010110 0
#1905000000
0%
0'
#1910000000
1%
1'
01
#1915000000
0%
0'
#1920000000
1%
1'
b00000000000000000000000010010110 -
b1001100 .
#1925000000
0%
0'
#1930000000
1%
1'
b00000000000000000000000001100100 -
b1001101 .
#1935000000
0%
0'
#1940000000
1%
1'
b1001100 /
b00000000000000000000000010011000 0
11
#1945000000
0%
0'
#1950000000
1%
1'
b1001101 /
b00000000000000000000000010011010 0
#1955000000
0%
0'
#1960000000
1%
1'
01
#1965000000
0%
0'
#1970000000
1%
1'
b00000000000000000000000010011010 -
b1001110 .
#1975000000
0%
0'
#1980000000
1%
1'
b00000000000000000000000001100100 -
b1001111 .
#1985000000
0%
0'
#1990000000
1%
1'
b1001110 /
b00000000000000000000000010011100 0
11
#1995000000
0%
0'
#2000000000
1%
1'
b1001111 /
b00000000000000000000000010011110 0
#2005000000
0%
0'
#2010000000
1%
1'
01
#2015000000
0%
0'
#2020000000
1%
1'
b00000000000000000000000010011110 -
b1010000 .
#2025000000
0%
0'
#2030000000
1%
1'
b00000000000000000000000001100100 -
b1010001 .
#2035000000
0%
0'
#2040000000
1%
1'
b1010000 /
b00000000000000000000000010100000 0
11
#2045000000
0%
0'
#2050000000
1%
1'
b1010001 /
b00000000000000000000000010100010 0
#2055000000
0%
0'
#2060000000
1%
1'
01
#2065000000
0%
0'
#2070000000
1%
1'
b00000000000000000000000010100010 -
b1010010 .
#2075000000
0%
0'
#2080000000
1%
1'
b00000000000000000000000001100100 -
b1010011 .
#2085000000
0%
0'
#2090000000
1%
1'
b1010010 /
b00000000000000000000000010100100 0
11
#2095000000
0%
0'
#2100000000
1%
1'
b1010011 /
b00000000000000000000000010100110 0
#2105000000
0%
0'
#2110000000
1%
1'
01
#2115000000
0%
0'
#2120000000
1%
1'
b00000000000000000000000010100110 -
b1010100 .
#2125000000
0%
0'
#2130000000
1%
1'
b00000000000000000000000001100100 -
b1010101 .
#2135000000
0%
0'
#2140000000
1%
1'
b1010100 /
b00000000000000000000000010101000 0
11
#2145000000
0%
0'
#2150000000
1%
1'
b1010101 /
b00000000000000000000000010101010 0
#2155000000
0%
0'
#2160000000
1%
1'
01
#2165000000
0%
0'
#2170000000
1%
1'
b00000000000000000000000010101010 -
b1010110 .
#2175000000
0%
0'
#2180000000
1%
1'
b00000000000000000000000001100100 -
b1010111 .
#2185000000
0%
0'
#2190000000
1%
1'
b1010110 /
b00000000000000000000000010101100 0
11
#2195000000
0%
0'
#2200000000
1%
1'
b1010111 /
b00000000000000000000000010101110 0
#2205000000
0%
0'
#2210000000
1%
1'
01
#2215000000
0%
0'
#2220000000
1%
1'
b00000000000000000000000010101110 -
b1011000 .
#2225000000
0%
0'
#2230000000
1%
1'
b00000000000000000000000001100100 -
b1011001 .
#2235000000
0%
0'
#2240000000
1%
1'
b1011000 /
b00000000000000000000000010110000 0
11
#2245000000
0%
0'
#2250000000
1%
1'
b1011001 /
b00000000000000000000000010110010 0
#2255000000
0%
0'
#2260000000
1%
1'
01
#2265000000
0%
0'
#2270000000
1%
1'
b00000000000000000000000010110010 -
b1011010 .
#2275000000
0%
0'
#2280000000
1%
1'
b00000000000000000000000001100100 -
b1011011 .
#2285000000
0%
0'
#2290000000
1%
1'
b1011010 /
b00000000000000000000000010110100 0
11
#2295000000
0%
0'
#2300000000
1%
1'
b1011011 /
b00000000000000000000000010110110 0
#2305000000
0%
0'
#2310000000
1%
1'
01
#2315000000
0%
0'
#2320000000
1%
1'
b00000000000000000000000010110110 -
b1011100 .
#2325000000
0%
0'
#2330000000
1%
1'
b00000000000000000000000001100100 -
b1011101 .
#2335000000
0%
0'
#2340000000
1%
1'
b1011100 /
b00000000000000000000000010111000 0
11
#2345000000
0%
0'
#2350000000
1%
1'
b1011101 /
b00000000000000000000000010111010 0
#2355000000
0%
0'
#2360000000
1%
1'
01
#2365000000
0%
0'
#2370000000
1%
1'
b00000000000000000000000010111010 -
b1011110 .
#2375000000
0%
0'
#2380000000
1%
1'
b00000000000000000000000001100100 -
b1011111 .
#2385000000
0%
0'
#2390000000
1%
1'
b1011110 /
b00000000000000000000000010111100 0
11
#2395000000
0%
0'
#2400000000
1%
1'
b1011111 /
b00000000000000000000000010111110 0
#2405000000
0%
0'
#2410000000
1%
1'
01
#2415000000
0%
0'
#2420000000
1%
1'
b00000000000000000000000010111110 -
b1100000 .
#2425000000
0%
0'
#2430000000
1%
1'
b00000000000000000000000001100100 -
b1100001 .
#2435000000
0%
0'
#2440000000
1%
1'
b1100000 /
b00000000000000000000000011000000 0
11
#2445000000
0%
0'
#2450000000
1%
1'
b1100001 /
b00000000000000000000000011000010 0
#2455000000
0%
0'
#2460000000
1%
1'
01
#2465000000
0%
0'
#2470000000
1%
1'
b00000000000000000000000011000010 -
b1100010 .
#2475000000
0%
0'
#2480000000
1%
1'
b00000000000000000000000001100100 -
b1100011 .
#2485000000
0%
0'
#2490000000
1%
1'
b1100010 /
b00000000000000000000000011000100 0
11
#2495000000
0%
0'
#2500000000
1%
1'
b1100011 /
b00000000000000000000000011000110 0
#2505000000
0%
0'
#2510000000
1%
1'
01
#2515000000
0%
0'
#2520000000
1%
1'
b00000000000000000000000011000110 -
b1100100 .
#2525000000
0%
0'
#2530000000
1%
1'
b00000000000000000000000001100100 -
b1100101 .
#2535000000
0%
0'
#2540000000
1%
1'
b1100100 /
b00000000000000000000000011001000 0
11
#2545000000
0%
0'
#2550000000
1%
1'
b1100101 /
b00000000000000000000000011001010 0
#2555000000
0%
0'
#2560000000
1%
1'
01
#2565000000
0%
0'
#2570000000
1%
1'
b00000000000000000000000011001010 -
b1100110 .
#2575000000
0%
0'
#2580000000
1%
1'
b00000000000000000000000001100100 -
b1100111 .
#2585000000
0%
0'
#2590000000
1%
1'
b1100110 /
b00000000000000000000000011001100 0
11
#2595000000
0%
0'
#2600000000
1%
1'
b1100111 /
b00000000000000000000000011001110 0
#2605000000
0%
0'
#2610000000
1%
1'
01
#2615000000
0%
0'
#2620000000
1%
1'
b00000000000000000000000011001110 -
b1101000 .
#2625000000
0%
0'
#2630000000
1%
1'
b00000000000000000000000001100100 -
b1101001 .
#2635000000
0%
0'
#2640000000
1%
1'
b1101000 /
b00000000000000000000000011010000 0
11
#2645000000
0%
0'
#2650000000
1%
1'
b1101001 /
b00000000000000000000000011010010 0
#2655000000
0%
0'
#2660000000
1%
1'
01
#2665000000
0%
0'
#2670000000
1%
1'
b00000000000000000000000011010010 -
b1101010 .
#2675000000
0%
0'
#2680000000
1%
1'
b00000000000000000000000001100100 -
b1101011 .
#2685000000
0%
0'
#2690000000
1%
1'
b1101010 /
b00000000000000000000000011010100 0
11
#2695000000
0%
0'
#2700000000
1%
1'
b1101011 /
b00000000000000000000000011010110 0
#2705000000
0%
0'
#2710000000
1%
1'
01
#2715000000
0%
0'
#2720000000
1%
1'
b00000000000000000000000011010110 -
b1101100 .
#2725000000
0%
0'
#2730000000
1%
1'
b00000000000000000000000001100100 -
b1101101 .
#2735000000
0%
0'
#2740000000
1%
1'
b1101100 /
b00000000000000000000000011011000 0
11
#2745000000
0%
0'
#2750000000
1%
1'
b1101101 /
b00000000000000000000000011011010 0
#2755000000
0%
0'
#2760000000
1%
1'
01
#2765000000
0%
0'
#2770000000
1%
1'
b00000000000000000000000011011010 -
b1101110 .
#2775000000
0%
0'
#2780000000
1%
1'
b00000000000000000000000001100100 -
b1101111 .
#2785000000
0%
0'
#2790000000
1%
1'
b1101110 /
b00000000000000000000000011011100 0
11
#2795000000
0%
0'
#2800000000
1%
1'
b1101111 /
b00000000000000000000000011011110 0
#2805000000
0%
0'
#2810000000
1%
1'
01
#2815000000
0%
0'
#2820000000
1%
1'
b00000000000000000000000011011110 -
b1110000 .
#2825000000
0%
0'
#2830000000
1%
1'
b00000000000000000000000001100100 -
b1110001 .
#2835000000
0%
0'
#2840000000
1%
1'
b1110000 /
b00000000000000000000000011100000 0
11
#2845000000
0%
0'
#2850000000
1%
1'
b1110001 /
b00000000000000000000000011100010 0
#2855000000
0%
0'
#2860000000
1%
1'
01
#2865000000
0%
0'
#2870000000
1%
1'
b00000000000000000000000011100010 -
b1110010 .
#2875000000
0%
0'
#2880000000
1%
1'
b00000000000000000000000001100100 -
b1110011 .
#2885000000
0%
0'
#2890000000
1%
1'
b1110010 /
b00000000000000000000000011100100 0
11
#2895000000
0%
0'
#2900000000
1%
1'
b1110011 /
b00000000000000000000000011100110 0
#2905000000
0%
0'
#2910000000
1%
1'
01
#2915000000
0%
0'
#2920000000
1%
1'
b00000000000000000000000011100110 -
b1110100 .
#2925000000
0%
0'
#2930000000
1%
1'
b00000000000000000000000001100100 -
b1110101 .
#2935000000
0%
0'
#2940000000
1%
1'
b1110100 /
b00000000000000000000000011101000 0
11
#2945000000
0%
0'
#2950000000
1%
1'
b1110101 /
b00000000000000000000000011101010 0
#2955000000
0%
0'
#2960000000
1%
1'
01
#2965000000
0%
0'
#2970000000
1%
1'
b00000000000000000000000011101010 -
b1110110 .
#2975000000
0%
0'
#2980000000
1%
1'
b00000000000000000000000001100100 -
b1110111 .
#2985000000
0%
0'
#2990000000
1%
1'
b1110110 /
b00000000000000000000000011101100 0
11
#2995000000
0%
0'
#3000000000
1%
1'
b1110111 /
b00000000000000000000000011101110 0
#3005000000
0%
0'
#3010000000
1%
1'
01
#3015000000
0%
0'
#3020000000
1%
1'
b00000000000000000000000011101110 -
b1111000 .
#3025000000
0%
0'
#3030000000
1%
1'
b00000000000000000000000001100100 -
b1111001 .
#3035000000
0%
0'
#3040000000
1%
1'
b1111000 /
b00000000000000000000000011110000 0
11
#3045000000
0%
0'
#3050000000
1%
1'
b1111001 /
b00000000000000000000000011110010 0
#3055000000
0%
0'
#3060000000
1%
1'
01
#3065000000
0%
0'
#3070000000
1%
1'
b00000000000000000000000011110010 -
b1111010 .
#3075000000
0%
0'
#3080000000
1%
1'
b00000000000000000000000001100100 -
b1111011 .
#3085000000
0%
0'
#3090000000
1%
1'
b1111010 /
b00000000000000000000000011110100 0
11
#3095000000
0%
0'
#3100000000
1%
1'
b1111011 /
b00000000000000000000000011110110 0
#3105000000
0%
0'
#3110000000
1%
1'
01
#3115000000
0%
0'
#3120000000
1%
1'
b00000000000000000000000011110110 -
b1111100 .
#3125000000
0%
0'
#3130000000
1%
1'
b00000000000000000000000001100100 -
b1111101 .
#3135000000
0%
0'
#3140000000
1%
1'
b1111100 /
b00000000000000000000000011111000 0
11
#3145000000
0%
0'
#3150000000
1%
1'
b1111101 /
b00000000000000000000000011111010 0
#3155000000
0%
0'
#3160000000
1%
1'
01
#3165000000
0%
0'
#3170000000
1%
1'
b00000000000000000000000011111010 -
b1111110 .
#3175000000
0%
0'
#3180000000
1%
1'
b00000000000000000000000001100100 -
b1111111 .
#3185000000
0%
0'
#3190000000
1%
1'
b1111110 /
b00000000000000000000000011111100 0
11
#3195000000
0%
0'
#3200000000
1%
1'
b1111111 /
b00000000000000000000000011111110 0
#3205000000
0%
0'
#3210000000
1%
1'
01
#3215000000
0%
0'
#3220000000
1%
1'
b00000000000000000000000011111110 -
#3225000000
0%
0'
#3230000000
1%
1'
b0 .
#3235000000
0%
0'
#3240000000
1%
1'
b00000000000000000000000000000000 -
b1 .
#3245000000
0%
0'
#3250000000
1%
1'
b00000000000000000000000000000010 -
b10 .
#3255000000
0%
0'
#3260000000
1%
1'
b00000000000000000000000000000100 -
b11 .
#3265000000
0%
0'
#3270000000
1%
1'
b00000000000000000000000000000110 -
b100 .
#3275000000
0%
0'
#3280000000
1%
1'
b00000000000000000000000000001000 -
b101 .
#3285000000
0%
0'
#3290000000
1%
1'
b00000000000000000000000000001010 -
b110 .
#3295000000
0%
0'
#3300000000
1%
1'
b00000000000000000000000000001100 -
b111 .
#3305000000
0%
0'
#3310000000
1%
1'
b00000000000000000000000000001110 -
#3315000000
0%
0'
#3320000000
1%
1'
#3325000000
0%
0'
#3330000000
1%
1'
b1000 .
#3335000000
0%
0'
#3340000000
1%
1'
b00000000000000000000000000010000 -
b1001 .
#3345000000
0%
0'
#3350000000
1%
1'
b00000000000000000000000000010010 -
b1010 .
#3355000000
0%
0'
#3360000000
1%
1'
b00000000000000000000000000010100 -
b1011 .
#3365000000
0%
0'
#3370000000
1%
1'
b00000000000000000000000000010110 -
b1100 .
#3375000000
0%
0'
#3380000000
1%
1'
b00000000000000000000000000011000 -
b1101 .
#3385000000
0%
0'
#3390000000
1%
1'
b00000000000000000000000000011010 -
b1110 .
#3395000000
0%
0'
#3400000000
1%
1'
b00000000000000000000000000011100 -
b1111 .
#3405000000
0%
0'
